{
  "type": "minecraft:crafting_shapeless",
  "ingredients": [
    {
      "item": "minecraft:glow_berries"
    },
    {
      "item": "minecraft:purple_dye"
    }
  ],
  "result": {
    "item": "riverbankwisteria:wisteria_pod",
    "count": 1
  }
}