{
  "variants": {
    "berries=false": {
      "model": "riverbankwisteria:block/wisteria_vines_plant"
    },
    "berries=true": {
      "model": "riverbankwisteria:block/wisteria_vines_plant_lit"
    }
  }
}